{
  "schema_version": 1,
  "channel": "beer_hall",
  "generated_at": "2026-05-02T02:28:54Z",
  "page_size": 10,
  "total": 16,
  "page_count": 2,
  "pages": [
    {
      "page": 1,
      "file": "beer_hall/feed/page-1.json",
      "count": 10
    },
    {
      "page": 2,
      "file": "beer_hall/feed/page-2.json",
      "count": 6
    }
  ]
}
