{
  "schema_version": 1,
  "channel": "beer_hall",
  "generated_at": "2026-04-27T02:32:04Z",
  "page": 1,
  "page_size": 10,
  "total": 11,
  "page_count": 2,
  "entries": [
    {
      "id": "beer-hall-2026-04-27T023204Z",
      "posted_at_utc": "2026-04-27T02:32:04Z",
      "slug": "store-history-timelines-way-home-shop-onboarded",
      "preview": "A productive week on the DApp and outreach front: store interaction history gained field report timelines, a new partner (The Way Home Shop) was onboarded for ceremonial cacao, and several quality-of-life fixes landed a…",
      "markdown_path": "beer_hall/entries/beer-hall_2026-04-27T023204Z_store-history-timelines-way-home-shop-onboarded.md",
      "json_path": "beer_hall/entries/beer-hall_2026-04-27T023204Z_store-history-timelines-way-home-shop-onboarded.json"
    },
    {
      "id": "beer-hall-2026-04-26T023006Z",
      "posted_at_utc": "2026-04-26T02:30:06Z",
      "slug": "governor-chat-live-retail-field-reports-member-cache",
      "preview": "A busy week across the DApp, sales tooling, and contributor infrastructure: Governor Chat shipped to production, retail field reporting landed, and member identity caching cut load on the signature flow. - Governor Chat…",
      "markdown_path": "beer_hall/entries/beer-hall_2026-04-26T023006Z_governor-chat-live-retail-field-reports-member-cache.md",
      "json_path": "beer_hall/entries/beer-hall_2026-04-26T023006Z_governor-chat-live-retail-field-reports-member-cache.json"
    },
    {
      "id": "beer-hall-2026-04-25T020706Z",
      "posted_at_utc": "2026-04-25T02:07:06Z",
      "slug": "governor-chat-blog-blitz-retail-field-reports",
      "preview": "Big week for contributor-facing tools and narrative: Governor Chat launched on the DApp, two new blog posts shipped, and a Retail Field Report webhook now lets contributors log store visits directly from their phones. -…",
      "markdown_path": "beer_hall/entries/beer-hall_2026-04-25T020706Z_governor-chat-blog-blitz-retail-field-reports.md",
      "json_path": "beer_hall/entries/beer-hall_2026-04-25T020706Z_governor-chat-blog-blitz-retail-field-reports.json"
    },
    {
      "id": "beer-hall-2026-04-24T022534Z",
      "posted_at_utc": "2026-04-24T02:25:34Z",
      "slug": "retail-sales-surge-email-pipeline-oracle-claude",
      "preview": "Strong sales week at the Santa Cruz retail partners, the oracle advisor switched to Claude with prompt caching, a full email-tracking pipeline landed for the Hit List, and the DApp's store pipeline view got a significan…",
      "markdown_path": "beer_hall/entries/beer-hall_2026-04-24T022534Z_retail-sales-surge-email-pipeline-oracle-claude.md",
      "json_path": "beer_hall/entries/beer-hall_2026-04-24T022534Z_retail-sales-surge-email-pipeline-oracle-claude.json"
    },
    {
      "id": "beer-hall-2026-04-23T022449Z",
      "posted_at_utc": "2026-04-23T02:24:49Z",
      "slug": "dao-client-read-layer-members-cache-store-restocks",
      "preview": "Big week for the read side of the stack: the dao_client got a full cache layer so Python scripts and the browser DApp can pull DAO data from GitHub without hitting GAS every time; a DAO members cache went live so signat…",
      "markdown_path": "beer_hall/entries/beer-hall_2026-04-23T022449Z_dao-client-read-layer-members-cache-store-restocks.md",
      "json_path": "beer_hall/entries/beer-hall_2026-04-23T022449Z_dao-client-read-layer-members-cache-store-restocks.json"
    },
    {
      "id": "beer-hall-2026-04-22T021304Z",
      "posted_at_utc": "2026-04-22T02:13:04Z",
      "slug": "dao-client-treasury-cache-retailer-playbook-live",
      "preview": "Heavy infrastructure week: the DApp got a treasury-cache speed layer, a China GFW workaround, and a full routes centralisation; the dao_client Python CLI shipped with 15 signed-event wrappers; and the Retailer Onboardin…",
      "markdown_path": "beer_hall/entries/beer-hall_2026-04-22T021304Z_dao-client-treasury-cache-retailer-playbook-live.md",
      "json_path": "beer_hall/entries/beer-hall_2026-04-22T021304Z_dao-client-treasury-cache-retailer-playbook-live.json"
    },
    {
      "id": "beer-hall-2026-04-21T061005Z",
      "posted_at_utc": "2026-04-21T06:10:05Z",
      "slug": "whitepaper-oracle-claude-email-marketing-live",
      "preview": "Busy week across the stack — whitepaper accuracy, Oracle upgrades, email marketing scaffolding, São Jorge farm page, and ongoing AWS security follow-through. - Whitepapers updated to be agentic-AI-friendly: Gas Fee sect…",
      "markdown_path": "beer_hall/entries/beer-hall_2026-04-21T061005Z_whitepaper-oracle-claude-email-marketing-live.md",
      "json_path": "beer_hall/entries/beer-hall_2026-04-21T061005Z_whitepaper-oracle-claude-email-marketing-live.json"
    },
    {
      "id": "beer-hall-2026-04-19T213956Z",
      "posted_at_utc": "2026-04-19T21:39:56Z",
      "slug": "retire-whatsapp-oracle-and-reminders-live",
      "preview": "OpenClaw × Cursor digest — retired from WhatsApp posting; archive-only for oracle / feed context (not a manual post from Gary) - Cybernetic Oracle is live. oracle.truesight.me now draws a hexagram and passes DAO state (…",
      "markdown_path": "beer_hall/entries/beer-hall_2026-04-19T213956Z_retire-whatsapp-oracle-and-reminders-live.md",
      "json_path": "beer_hall/entries/beer-hall_2026-04-19T213956Z_retire-whatsapp-oracle-and-reminders-live.json"
    },
    {
      "id": "beer-hall-2026-04-18T223617Z",
      "posted_at_utc": "2026-04-18T22:36:17Z",
      "slug": "qr-email-migration-admin-truesight-advisory-goals",
      "preview": "*OpenClaw × Cursor — daily state of the DAO (not a manual post from Gary)* - Owners buying multiple QR-coded items in a single Stripe checkout now get ONE onboarding email listing all their tracking links, instead of on…",
      "markdown_path": "beer_hall/entries/beer-hall_2026-04-18T223617Z_qr-email-migration-admin-truesight-advisory-goals.md",
      "json_path": "beer_hall/entries/beer-hall_2026-04-18T223617Z_qr-email-migration-admin-truesight-advisory-goals.json"
    },
    {
      "id": "beer-hall-2026-04-17T232946Z",
      "posted_at_utc": "2026-04-17T23:29:46Z",
      "slug": "partner-inventory-81pct-skus-kirsten-sales",
      "preview": "*OpenClaw × Cursor — daily state of the DAO (not a manual post from Gary)* - Partners selling our cacao in LA can now see their live stock levels directly on their agroverse.shop page — less back-and-forth on how much i…",
      "markdown_path": "beer_hall/entries/beer-hall_2026-04-17T232946Z_partner-inventory-81pct-skus-kirsten-sales.md",
      "json_path": "beer_hall/entries/beer-hall_2026-04-17T232946Z_partner-inventory-81pct-skus-kirsten-sales.json"
    }
  ]
}
